{
  "prepare_queue": {
    "installed": [],
    "uninstalled": []
  },
  "config_munge": {
    "files": {}
  },
  "installed_plugins": {
    "cordova-plugin-device": {
      "PACKAGE_NAME": "io.partopitao.sapahasbie"
    },
    "cordova-plugin-splashscreen": {
      "PACKAGE_NAME": "io.partopitao.sapahasbie"
    },
    "cordova-plugin-camera": {
      "PACKAGE_NAME": "io.partopitao.sapahasbie"
    },
    "cordova-plugin-file": {
      "PACKAGE_NAME": "io.partopitao.sapahasbie"
    },
    "cordova-plugin-androidx": {
      "PACKAGE_NAME": "io.cordova.hellocordova"
    },
    "cordova-plugin-androidx-adapter": {
      "PACKAGE_NAME": "io.cordova.hellocordova"
    },
    "cordova-plugin-firebase-messaging": {
      "PACKAGE_NAME": "io.cordova.hellocordova"
    }
  },
  "dependent_plugins": {}
}
