{
  "cordova-plugin-device": {
    "source": {
      "type": "registry",
      "id": "cordova-plugin-device"
    },
    "is_top_level": true,
    "variables": {}
  },
  "cordova-plugin-splashscreen": {
    "source": {
      "type": "registry",
      "id": "cordova-plugin-splashscreen@6.0.2"
    },
    "is_top_level": true,
    "variables": {}
  },
  "cordova-plugin-camera": {
    "source": {
      "type": "registry",
      "id": "cordova-plugin-camera@6.0.0"
    },
    "is_top_level": true,
    "variables": {}
  },
  "cordova-plugin-file": {
    "source": {
      "type": "registry",
      "id": "cordova-plugin-file@7.0.0"
    },
    "is_top_level": true,
    "variables": {}
  },
  "cordova-plugin-androidx": {
    "source": {
      "type": "registry",
      "id": "cordova-plugin-androidx@^3.0.0"
    },
    "is_top_level": true,
    "variables": {}
  },
  "cordova-plugin-androidx-adapter": {
    "source": {
      "type": "registry",
      "id": "cordova-plugin-androidx-adapter"
    },
    "is_top_level": true,
    "variables": {}
  },
  "cordova-plugin-firebase-messaging": {
    "source": {
      "type": "registry",
      "id": "cordova-plugin-firebase-messaging"
    },
    "is_top_level": true,
    "variables": {
      "ANDROID_FIREBASE_BOM_VERSION": "30.3.1"
    }
  },
  "cordova-support-android-plugin": {
    "source": {
      "type": "registry",
      "id": "cordova-support-android-plugin@~2.0.4"
    },
    "is_top_level": false,
    "variables": {}
  }
}